…
0.4.2.1 Challenge 2

Inside a new chunk, add some code to import the dataset we previously prepared into an object called lizards.

lizards <- read_csv("data/lizards.csv") %>% 
  mutate(date = lubridate::mdy(date))

Clicking “Knit” will automatically save your .Rmd file as well as the HTML output.

Now, we can add a chunk to show the data, by including this code in it:

lizards

## # A tibble: 1,628 × 16
##    date       scientific_name   common_name  zone  site  plot    pit spp   sex  
##    <date>     <chr>             <chr>        <chr> <chr> <chr> <dbl> <chr> <chr>
##  1 1989-06-16 cnemidophorus ti… western whi… c     cali  a         4 cnti  m    
##  2 1989-06-16 uta stansburiana  side-blotch… c     cali  a         8 utst  j    
##  3 1989-06-16 cnemidophorus ti… western whi… c     sand  b         2 cnti  m    
##  4 1989-06-16 cnemidophorus ti… western whi… c     sand  b         8 cnti  f    
##  5 1989-06-16 cnemidophorus ti… western whi… c     sand  c         2 cnti  m    
##  6 1989-06-16 cnemidophorus ti… western whi… g     basn  b         1 cnti  f    
##  7 1989-06-16 uta stansburiana  side-blotch… g     basn  b         2 utst  f    
##  8 1989-06-16 cnemidophorus te… colorado ch… g     basn  b         8 cnte  j    
##  9 1989-06-16 cnemidophorus te… colorado ch… g     basn  b         9 cnte  f    
## 10 1989-06-16 cnemidophorus ti… western whi… g     basn  b        10 cnti  m    
## # … with 1,618 more rows, and 7 more variables: rcap <chr>, toe_num <dbl>,
## #   sv_length <dbl>, total_length <dbl>, weight <dbl>, tail <chr>, pc <dbl>
…
