…
   mutate(Year = year(Date),
          Month = month(Date),
          Day = day(Date),
          Site = factor(Site)) # change Site to a factor
## Rows: 720 Columns: 4
## -- Column specification --------------------------------------------------------
## Delimiter: ","
## chr  (1): Analyte
## dbl  (2): Site, mg_per_day
## date (1): Date
## 
## i Use `spec()` to retrieve the full column specification for this data.
## i Specify the column types or set `show_col_types = FALSE` to quiet this message.
s1335
## # A tibble: 352 x 7
##    Site  Analyte Date       mg_per_day  Year Month   Day
##    <fct> <chr>   <date>          <dbl> <dbl> <dbl> <int>
##  1 1335  x       1991-11-28      0.253  1991    11    28
##  2 1335  x       1991-11-29      0.239  1991    11    29
##  3 1335  x       1991-11-30      0.197  1991    11    30
##  4 1335  x       1991-12-01      0.173  1991    12     1
##  5 1335  x       1991-12-02      0.222  1991    12     2
##  6 1335  x       1991-12-03      0.191  1991    12     3
##  7 1335  x       1992-01-30      0.298  1992     1    30
##  8 1335  x       1992-01-31      0.253  1992     1    31
##  9 1335  x       1992-02-01      0.256  1992     2     1
## 10 1335  x       1992-02-02      0.284  1992     2     2
## # ... with 342 more rows
```
…
<img src="{{< blogdown/postref >}}index_files/figure-html/unnamed-chunk-2-1.png" width="672" />

Count the number of samples per month.


```r
s1335 %>% 
   group_by(Year, Month) %>% 
   summarize(count = n()) %>% 
   arrange(-count) # arrange by count column in descending order
## `summarise()` has grouped output by 'Year'. You can override using the `.groups` argument.
## # A tibble: 68 x 3
##     Year Month count
##    <dbl> <dbl> <int>
##  1  1992    10     7
##  2  1993     2     7
##  3  1993     4     7
##  4  1993     6     7
##  5  1993     8     7
##  6  1993    12     7
##  7  1994     2     7
##  8  1994     6     7
##  9  1994     8     7
## 10  1994    12     7
## # ... with 58 more rows
```
…
