…
> Note that this material uses the `magrittr` pipe. The `magrittr` package is the one that introduced the pipe operator to the R world, and `dplyr` automatically imports this useful operator when it is loaded. However, the pipe being such a widespread and popular concept in programming and data science, it ended up making it into Base R (the "native" pipe) in 2021 with the release of R 4.1, using a different operator: `|>`. You can switch your pipe shortcut to the native pipe in `Tools > Global options > Code > Use native pipe operator`.

## 1. Pick variables with `select()`

`select()` allows us to pick variables (i.e. columns) from the dataset. For example, to only keep the data about year, site, spp, sex, total_length, and weight:

> The columns are reordered in the order they are listed and columns can also be renamed.


```r
lizards %>% 
  select(date, zone, site, spp, sex, total_length, weight) -> lizards_small
lizards %>% 
  select(date, zone, site, spp, sex, length = total_length, weight)
## # A tibble: 4,091 x 7
##    date       zone  site  spp   sex   length weight
##    <date>     <fct> <fct> <fct> <fct>  <dbl>  <dbl>
##  1 1989-06-16 C     CALI  CNTI  M        260     26
##  2 1989-06-16 C     CALI  UTST  J         86      6
##  3 1989-06-16 C     SAND  CNTI  M        310     24
##  4 1989-06-16 C     SAND  CNTI  F        305     25
##  5 1989-06-16 C     SAND  CNTI  M        270     24
##  6 1989-06-16 G     BASN  CNTI  F        304     22
##  7 1989-06-16 G     BASN  UTST  F         50      3
##  8 1989-06-16 G     BASN  CNTE  J        265      9
##  9 1989-06-16 G     BASN  CNTE  F        294     16
## 10 1989-06-16 G     BASN  CNTI  M        240      9
## # ... with 4,081 more rows
```

There are several ways to select columns.

1. list the column names
2. list column numbers
3. use minus (-) notation to remove columns
4. a range using the ':'


```r
lizards %>% select(1,2,3)
## # A tibble: 4,091 x 3
##    date       zone  site 
##    <date>     <fct> <fct>
##  1 1989-06-16 C     CALI 
##  2 1989-06-16 C     CALI 
##  3 1989-06-16 C     SAND 
##  4 1989-06-16 C     SAND 
##  5 1989-06-16 C     SAND 
##  6 1989-06-16 G     BASN 
##  7 1989-06-16 G     BASN 
##  8 1989-06-16 G     BASN 
##  9 1989-06-16 G     BASN 
## 10 1989-06-16 G     BASN 
## # ... with 4,081 more rows
lizards %>% select(-date)
## # A tibble: 4,091 x 13
##    zone  site  plot    pit spp   sex   rcap  toe_num SV_length total_length
##    <fct> <fct> <fct> <dbl> <fct> <fct> <fct>   <dbl>     <dbl>        <dbl>
##  1 C     CALI  A         4 CNTI  M     N         240        92          260
##  2 C     CALI  A         8 UTST  J     N         153        49           86
##  3 C     SAND  B         2 CNTI  M     N         241        91          310
##  4 C     SAND  B         8 CNTI  F     N         242        93          305
##  5 C     SAND  C         2 CNTI  M     N         243        94          270
##  6 G     BASN  B         1 CNTI  F     N         244        90          304
##  7 G     BASN  B         2 UTST  F     N         154        42           50
##  8 G     BASN  B         8 CNTE  J     N         222        72          265
##  9 G     BASN  B         9 CNTE  F     N          22        86          294
## 10 G     BASN  B        10 CNTI  M     N         245        70          240
## # ... with 4,081 more rows, and 3 more variables: weight <dbl>, tail <fct>,
## #   pc <dbl>
lizards %>% select(5:9)
## # A tibble: 4,091 x 5
##      pit spp   sex   rcap  toe_num
##    <dbl> <fct> <fct> <fct>   <dbl>
##  1     4 CNTI  M     N         240
##  2     8 UTST  J     N         153
##  3     2 CNTI  M     N         241
##  4     8 CNTI  F     N         242
##  5     2 CNTI  M     N         243
##  6     1 CNTI  F     N         244
##  7     2 UTST  F     N         154
##  8     8 CNTE  J     N         222
##  9     9 CNTE  F     N          22
## 10    10 CNTI  M     N         245
## # ... with 4,081 more rows
lizards %>% select(-(date:zone))
## # A tibble: 4,091 x 12
##    site  plot    pit spp   sex   rcap  toe_num SV_length total_length weight
##    <fct> <fct> <dbl> <fct> <fct> <fct>   <dbl>     <dbl>        <dbl>  <dbl>
##  1 CALI  A         4 CNTI  M     N         240        92          260     26
##  2 CALI  A         8 UTST  J     N         153        49           86      6
##  3 SAND  B         2 CNTI  M     N         241        91          310     24
##  4 SAND  B         8 CNTI  F     N         242        93          305     25
##  5 SAND  C         2 CNTI  M     N         243        94          270     24
##  6 BASN  B         1 CNTI  F     N         244        90          304     22
##  7 BASN  B         2 UTST  F     N         154        42           50      3
##  8 BASN  B         8 CNTE  J     N         222        72          265      9
##  9 BASN  B         9 CNTE  F     N          22        86          294     16
## 10 BASN  B        10 CNTI  M     N         245        70          240      9
## # ... with 4,081 more rows, and 2 more variables: tail <fct>, pc <dbl>
```
…
> Remember: `=` is used to pass on a value to an argument, whereas `==` is used to check for equality. Using `=` instead of `==` for a logical statment is one of the most common errors and R will give you a reminder in the console when this happens.

Filter lizard observations since 2000. There are also a lot of rows with NAs, can we filter those out too?


```r
range(lizards$date)
## [1] "1989-06-16" "2006-08-18"
lizards_small %>% 
  filter(date >= '2000-01-01', sex != 'NA') # remove rows with NAs
## # A tibble: 773 x 7
##    date       zone  site  spp   sex   total_length weight
##    <date>     <fct> <fct> <fct> <fct>        <dbl>  <dbl>
##  1 2000-03-13 C     SAND  UTST  F              109      2
##  2 2000-03-13 G     BASN  CNIN  F              126      1
##  3 2000-03-13 G     IBPE  CNUN  F              156      2
##  4 2000-03-13 G     IBPE  CNIN  F              132      1
##  5 2000-03-13 G     IBPE  CNIN  F              157      1
##  6 2000-03-13 G     IBPE  UTST  M              122      4
##  7 2000-03-13 G     IBPE  CNUN  F              137      1
##  8 2000-03-13 M     NORT  UTST  M              135      4
##  9 2000-03-13 M     RABB  UTST  M               93      4
## 10 2000-03-13 M     WELL  UTST  F               98      3
## # ... with 763 more rows
```

Filter using the or '|'.


```r
lizards_small %>% 
  filter(site == 'RABB' | site == 'GRAV')
## # A tibble: 797 x 7
##    date       zone  site  spp   sex   total_length weight
##    <date>     <fct> <fct> <fct> <fct>        <dbl>  <dbl>
##  1 1989-06-16 M     RABB  CNTI  F              250     26
##  2 1989-06-16 M     RABB  CNTI  F              265     16
##  3 1989-06-20 M     RABB  CNTI  F              290     21
##  4 1989-06-20 M     RABB  UTST  F               60      4
##  5 1989-06-20 M     RABB  CNTI  M              302     20
##  6 1989-06-20 M     RABB  CNTI  F              300     30
##  7 1989-06-20 M     RABB  CNTI  M              306     22
##  8 1989-06-23 M     RABB  CNTI  F              245     19
##  9 1989-06-23 M     RABB  CNTI  F              265     12
## 10 1989-06-27 M     RABB  CNTI  F              285     19
## # ... with 787 more rows
```

### 3. Reorder observations with `arrange()`

`arrange()` will reorder our rows according to a variable, by default in ascending order:

When/where was the biggest (total_length) lizard caught?


```r
range(lizards_small$total_length, na.rm = TRUE)
## [1]   8 414
lizards_small %>% arrange(total_length) 
## # A tibble: 4,091 x 7
##    date       zone  site  spp   sex   total_length weight
##    <date>     <fct> <fct> <fct> <fct>        <dbl>  <dbl>
##  1 1993-11-12 M     WELL  UTST  M                8      1
##  2 2005-11-18 M     RABB  UTST  F               11      3
##  3 1990-09-11 T     EAST  UTST  F               26      3
##  4 1990-09-11 T     EAST  UTST  M               27      2
##  5 1994-06-16 M     WELL  UTST  J               27     NA
##  6 1989-06-23 C     SAND  UTST  J               28      1
##  7 1989-11-08 M     WELL  UTST  F               29      1
##  8 1991-07-09 T     EAST  UTST  J               30      1
##  9 2002-08-22 G     SUMM  PHCO  J               30      1
## 10 2002-08-22 G     SUMM  PHCO  J               30      1
## # ... with 4,081 more rows
lizards_small %>% arrange(desc(total_length))
## # A tibble: 4,091 x 7
##    date       zone  site  spp   sex   total_length weight
##    <date>     <fct> <fct> <fct> <fct>        <dbl>  <dbl>
##  1 1996-03-15 C     SAND  UTST  M              414      6
##  2 1990-05-21 T     WEST  CNTI  F              340     25
##  3 2002-06-11 T     WEST  CNTI  M              340     23
##  4 2002-06-18 T     WEST  CNTI  M              340     23
##  5 1990-06-01 C     CALI  CNTI  M              333     26
##  6 1990-06-19 C     SAND  CNTI  F              330     24
##  7 1997-06-09 C     SAND  CNTI  F              327     28
##  8 1990-06-01 C     SAND  CNTI  M              325     28
##  9 1990-06-29 T     WEST  CNTI  M              325     29
## 10 1991-06-25 C     SAND  CNTI  M              321     11
## # ... with 4,081 more rows
lizards_small %>% arrange(-total_length)
## # A tibble: 4,091 x 7
##    date       zone  site  spp   sex   total_length weight
##    <date>     <fct> <fct> <fct> <fct>        <dbl>  <dbl>
##  1 1996-03-15 C     SAND  UTST  M              414      6
##  2 1990-05-21 T     WEST  CNTI  F              340     25
##  3 2002-06-11 T     WEST  CNTI  M              340     23
##  4 2002-06-18 T     WEST  CNTI  M              340     23
##  5 1990-06-01 C     CALI  CNTI  M              333     26
##  6 1990-06-19 C     SAND  CNTI  F              330     24
##  7 1997-06-09 C     SAND  CNTI  F              327     28
##  8 1990-06-01 C     SAND  CNTI  M              325     28
##  9 1990-06-29 T     WEST  CNTI  M              325     29
## 10 1991-06-25 C     SAND  CNTI  M              321     11
## # ... with 4,081 more rows
```

### 4. Create new variables with `mutate()`

We did some mutating when reading in our data at the start to convert columns to different data types.

`mutate()` is very versatile and useful! Few other uses include combining with `ifelse()` conditionals and transforming columns. 


```r
lizards_small %>% mutate(weight_kg = weight / 1000)
## # A tibble: 4,091 x 8
##    date       zone  site  spp   sex   total_length weight weight_kg
##    <date>     <fct> <fct> <fct> <fct>        <dbl>  <dbl>     <dbl>
##  1 1989-06-16 C     CALI  CNTI  M              260     26     0.026
##  2 1989-06-16 C     CALI  UTST  J               86      6     0.006
##  3 1989-06-16 C     SAND  CNTI  M              310     24     0.024
##  4 1989-06-16 C     SAND  CNTI  F              305     25     0.025
##  5 1989-06-16 C     SAND  CNTI  M              270     24     0.024
##  6 1989-06-16 G     BASN  CNTI  F              304     22     0.022
##  7 1989-06-16 G     BASN  UTST  F               50      3     0.003
##  8 1989-06-16 G     BASN  CNTE  J              265      9     0.009
##  9 1989-06-16 G     BASN  CNTE  F              294     16     0.016
## 10 1989-06-16 G     BASN  CNTI  M              240      9     0.009
## # ... with 4,081 more rows
```
…
However, a single-value summary is not particularly interesting. `summarise()` becomes more powerful when used with `group_by()`.

### 6. Change the scope with `group_by()`

`group_by()` changes the scope of the following function(s) from operating on the entire dataset to operating on it group-by-group.

See the effect of the grouping step (in the console):


```r
lizards_small %>%
  group_by(spp) 
## # A tibble: 4,091 x 7
##    date       zone  site  spp   sex   total_length weight
##    <date>     <fct> <fct> <fct> <fct>        <dbl>  <dbl>
##  1 1989-06-16 C     CALI  CNTI  M              260     26
##  2 1989-06-16 C     CALI  UTST  J               86      6
##  3 1989-06-16 C     SAND  CNTI  M              310     24
##  4 1989-06-16 C     SAND  CNTI  F              305     25
##  5 1989-06-16 C     SAND  CNTI  M              270     24
##  6 1989-06-16 G     BASN  CNTI  F              304     22
##  7 1989-06-16 G     BASN  UTST  F               50      3
##  8 1989-06-16 G     BASN  CNTE  J              265      9
##  9 1989-06-16 G     BASN  CNTE  F              294     16
## 10 1989-06-16 G     BASN  CNTI  M              240      9
## # ... with 4,081 more rows
```

Summarize by site, and species for mean weight. Calculate standard deviation and standard error.


```r
lizards_small %>%
  group_by(site, spp) %>% 
  summarize(meanW = mean(weight, na.rm = TRUE),
            SD = sd(weight),
            SE = SD/sqrt(n()))
## `summarise()` has grouped output by 'site'. You can override using the `.groups` argument.
## # A tibble: 121 x 5
##    site  spp    meanW    SD    SE
##    <fct> <fct>  <dbl> <dbl> <dbl>
##  1 BASN  BUDE  NaN       NA    NA
##  2 BASN  CNEX    3       NA    NA
##  3 BASN  CNIN    2.99    NA    NA
##  4 BASN  CNNE    2       NA    NA
##  5 BASN  CNTE    9.29    NA    NA
##  6 BASN  CNTI   12       NA    NA
##  7 BASN  CNUN    3.1     NA    NA
##  8 BASN  HOMA    4.73    NA    NA
##  9 BASN  PHCO   11.5     NA    NA
## 10 BASN  PHMO    2       NA    NA
## # ... with 111 more rows
```
…
The simplest join which matches pairs of observation whenever keys are equal. 

zone and site apear in each dataframe - but wouldn't date or year be useful to include too?


```r
lizards_small <-  lizards_small %>% mutate(year = year(date))
```

Now let's join using year, zone, and site:


```r
inner_join(lizards_small, npp, by = c('year', 'zone', 'site'))
## # A tibble: 3,670 x 9
##    date       zone  site  spp   sex   total_length weight  year npp_g_m2
##    <date>     <fct> <fct> <fct> <fct>        <dbl>  <dbl> <dbl>    <dbl>
##  1 1990-01-04 C     CALI  UKLI  <NA>            NA     NA  1990     28.6
##  2 1990-01-04 C     GRAV  UKLI  <NA>            NA     NA  1990     85.7
##  3 1990-01-04 C     SAND  UKLI  <NA>            NA     NA  1990    103. 
##  4 1990-01-04 C     SAND  UKLI  <NA>            NA     NA  1990    103. 
##  5 1990-01-04 G     BASN  UKLI  <NA>            NA     NA  1990     77.2
##  6 1990-01-04 G     IBPE  UKLI  <NA>            NA     NA  1990     34.1
##  7 1990-01-04 G     IBPE  UKLI  <NA>            NA     NA  1990     34.1
##  8 1990-01-04 M     RABB  UKLI  <NA>            NA     NA  1990    106. 
##  9 1990-01-04 M     RABB  UTST  F              114      2  1990    106. 
## 10 1990-01-04 M     WELL  UKLI  <NA>            NA     NA  1990     79.8
## # ... with 3,660 more rows
```

### Outer joins

A `left_join()` keeps the observations in the left (x argument) dataframe.


```r
left_join(lizards_small, npp, by = c('year', 'zone', 'site'))
## # A tibble: 4,091 x 9
##    date       zone  site  spp   sex   total_length weight  year npp_g_m2
##    <date>     <fct> <fct> <fct> <fct>        <dbl>  <dbl> <dbl>    <dbl>
##  1 1989-06-16 C     CALI  CNTI  M              260     26  1989       NA
##  2 1989-06-16 C     CALI  UTST  J               86      6  1989       NA
##  3 1989-06-16 C     SAND  CNTI  M              310     24  1989       NA
##  4 1989-06-16 C     SAND  CNTI  F              305     25  1989       NA
##  5 1989-06-16 C     SAND  CNTI  M              270     24  1989       NA
##  6 1989-06-16 G     BASN  CNTI  F              304     22  1989       NA
##  7 1989-06-16 G     BASN  UTST  F               50      3  1989       NA
##  8 1989-06-16 G     BASN  CNTE  J              265      9  1989       NA
##  9 1989-06-16 G     BASN  CNTE  F              294     16  1989       NA
## 10 1989-06-16 G     BASN  CNTI  M              240      9  1989       NA
## # ... with 4,081 more rows
```

A `right_join()` keeps the observation in the right (y argument) dataframe.


```r
right_join(lizards_small, npp, by = c('year', 'zone', 'site'))
## # A tibble: 3,928 x 9
##    date       zone  site  spp   sex   total_length weight  year npp_g_m2
##    <date>     <fct> <fct> <fct> <fct>        <dbl>  <dbl> <dbl>    <dbl>
##  1 1990-01-04 C     CALI  UKLI  <NA>            NA     NA  1990     28.6
##  2 1990-01-04 C     GRAV  UKLI  <NA>            NA     NA  1990     85.7
##  3 1990-01-04 C     SAND  UKLI  <NA>            NA     NA  1990    103. 
##  4 1990-01-04 C     SAND  UKLI  <NA>            NA     NA  1990    103. 
##  5 1990-01-04 G     BASN  UKLI  <NA>            NA     NA  1990     77.2
##  6 1990-01-04 G     IBPE  UKLI  <NA>            NA     NA  1990     34.1
##  7 1990-01-04 G     IBPE  UKLI  <NA>            NA     NA  1990     34.1
##  8 1990-01-04 M     RABB  UKLI  <NA>            NA     NA  1990    106. 
##  9 1990-01-04 M     RABB  UTST  F              114      2  1990    106. 
## 10 1990-01-04 M     WELL  UKLI  <NA>            NA     NA  1990     79.8
## # ... with 3,918 more rows
```

And a `full_join()` keeps all observation from both dataframes.


```r
full_join(lizards_small, npp, by = c('year', 'zone', 'site'))
## # A tibble: 4,349 x 9
##    date       zone  site  spp   sex   total_length weight  year npp_g_m2
##    <date>     <fct> <fct> <fct> <fct>        <dbl>  <dbl> <dbl>    <dbl>
##  1 1989-06-16 C     CALI  CNTI  M              260     26  1989       NA
##  2 1989-06-16 C     CALI  UTST  J               86      6  1989       NA
##  3 1989-06-16 C     SAND  CNTI  M              310     24  1989       NA
##  4 1989-06-16 C     SAND  CNTI  F              305     25  1989       NA
##  5 1989-06-16 C     SAND  CNTI  M              270     24  1989       NA
##  6 1989-06-16 G     BASN  CNTI  F              304     22  1989       NA
##  7 1989-06-16 G     BASN  UTST  F               50      3  1989       NA
##  8 1989-06-16 G     BASN  CNTE  J              265      9  1989       NA
##  9 1989-06-16 G     BASN  CNTE  F              294     16  1989       NA
## 10 1989-06-16 G     BASN  CNTI  M              240      9  1989       NA
## # ... with 4,339 more rows
```
…
Then we would want to join the two dataframes right? Which join should we use? What is the key?

What about reordering the columns in the same order and  changing characters to lower case?


```r
library(snakecase)
## Warning: package 'snakecase' was built under R version 4.0.5
left_join(lizards, code, by = 'spp') %>% 
  select(date, scientific_name, common_name, everything()) %>% 
  mutate_all(tolower)
## # A tibble: 4,091 x 16
##    date   scientific_name  common_name zone  site  plot  pit   spp   sex   rcap 
##    <chr>  <chr>            <chr>       <chr> <chr> <chr> <chr> <chr> <chr> <chr>
##  1 1989-~ cnemidophorus t~ western wh~ c     cali  a     4     cnti  m     n    
##  2 1989-~ uta stansburiana side-blotc~ c     cali  a     8     utst  j     n    
##  3 1989-~ cnemidophorus t~ western wh~ c     sand  b     2     cnti  m     n    
##  4 1989-~ cnemidophorus t~ western wh~ c     sand  b     8     cnti  f     n    
##  5 1989-~ cnemidophorus t~ western wh~ c     sand  c     2     cnti  m     n    
##  6 1989-~ cnemidophorus t~ western wh~ g     basn  b     1     cnti  f     n    
##  7 1989-~ uta stansburiana side-blotc~ g     basn  b     2     utst  f     n    
##  8 1989-~ cnemidophorus t~ colorado c~ g     basn  b     8     cnte  j     n    
##  9 1989-~ cnemidophorus t~ colorado c~ g     basn  b     9     cnte  f     n    
## 10 1989-~ cnemidophorus t~ western wh~ g     basn  b     10    cnti  m     n    
## # ... with 4,081 more rows, and 6 more variables: toe_num <chr>,
## #   SV_length <chr>, total_length <chr>, weight <chr>, tail <chr>, pc <chr>
```
